io\cucumber\examples\testng\DateSteps.class
rDesk\MyNeighborhoodReport\MainPage.class
io\cucumber\examples\testng\ShoppingStepDefinitions$Grocery.class
rWeb\Search\Search.class
rWeb\SearchAgent\Search_Data.class
rDesk\SellerAdvantage\MainPage\MainPageLPR.class
rDesk\MyNeighborhoodReport\Subscribers.class
rDesk\ManageLeads\PreRequisite.class
rDesk\SellerAdvantage\LAR\verifyLAR.class
rWeb\Forms\ContactForm.class
Admin\Company\Offices\ActivateWebsite.class
Admin\Login\SaveAgent.class
rWeb\Search\RequestInfo.class
rDesk\SellerAdvantage\MainPage\MainPageMAR.class
rDesk\SellerAdvantage\MAR\verifyMAR.class
rDesk\ManageLeads\CheckLead.class
io\cucumber\examples\testng\RunCucumberByCompositionBase.class
Admin\Login\Login.class
rWeb\Search\RequestShowing.class
rDesk\Login\LoginUser.class
rWeb\SearchAgent\Search.class
rWeb\SearchBroker\Search_Data.class
rWeb\Forms\RegistrationForm.class
rWeb\SearchBroker\Search.class
rDesk\SellerAdvantage\MainPage\preRequisite.class
rWeb\Search\SearchMLS.class
rDesk\MyNeighborhoodReport\deleteReport.class
rDesk\SellerAdvantage\MAR\createMAR.class
rDesk\MyNeighborhoodReport\emailPreview.class
rWeb\Login\LoginUser.class
Controller\Listener.class
rDesk\MyNeighborhoodReport\verifyReport$1.class
rDesk\MyNeighborhoodReport\verifyReport.class
Admin\Company\Offices\DeleteOffice.class
Admin\Company\Offices\NewOffice.class
rDesk\SellerAdvantage\MAR\test.class
rDesk\SellerAdvantage\LAR\test.class
rWeb\Search\Search_Data.class
io\cucumber\examples\testng\ShoppingStepDefinitions.class
rDesk\SellerAdvantage\MainPage\MainPageLAR.class
io\cucumber\examples\testng\ShoppingStepDefinitions$Price.class
Controller\BaseController.class
rDesk\MyNeighborhoodReport\createReport.class
io\cucumber\examples\testng\RunCucumberByCompositionTest.class
io\cucumber\examples\testng\RunCucumberTest.class
rDesk\MyNeighborhoodReport\Test_Data.class
io\cucumber\examples\testng\RpnCalculatorSteps$Entry.class
test.class
rDesk\MyNeighborhoodReport\previewReport.class
rDesk\SellerAdvantage\LAR\createLAR.class
io\cucumber\examples\testng\RpnCalculatorSteps.class
rDesk\MyNeighborhoodReport\deleteContactAndGroup.class
