D:\Automation\RealEstateDigital\src\test\java\io\cucumber\examples\testng\ShoppingStepDefinitions.java
D:\Automation\RealEstateDigital\src\test\java\rDesk\MyNeighborhoodReport\Subscribers.java
D:\Automation\RealEstateDigital\src\test\java\io\cucumber\examples\testng\RpnCalculatorSteps.java
D:\Automation\RealEstateDigital\src\test\java\rWeb\Search\SearchMLS.java
D:\Automation\RealEstateDigital\src\test\java\io\cucumber\examples\testng\RunCucumberByCompositionTest.java
D:\Automation\RealEstateDigital\src\test\java\Admin\Company\Offices\ActivateWebsite.java
D:\Automation\RealEstateDigital\src\test\java\Admin\Company\Offices\NewOffice.java
D:\Automation\RealEstateDigital\src\test\java\rDesk\MyNeighborhoodReport\deleteReport.java
D:\Automation\RealEstateDigital\src\test\java\rWeb\SearchAgent\Search_Data.java
D:\Automation\RealEstateDigital\src\test\java\rWeb\SearchBroker\Search.java
D:\Automation\RealEstateDigital\src\test\java\io\cucumber\examples\testng\RunCucumberTest.java
D:\Automation\RealEstateDigital\src\test\java\rDesk\SellerAdvantage\MAR\verifyMAR.java
D:\Automation\RealEstateDigital\src\test\java\Controller\Listener.java
D:\Automation\RealEstateDigital\src\test\java\rDesk\SellerAdvantage\MainPage\MainPageLPR.java
D:\Automation\RealEstateDigital\src\test\java\rWeb\Search\RequestInfo.java
D:\Automation\RealEstateDigital\src\test\java\rDesk\MyNeighborhoodReport\deleteContactAndGroup.java
D:\Automation\RealEstateDigital\src\test\java\rDesk\SellerAdvantage\MAR\createMAR.java
D:\Automation\RealEstateDigital\src\test\java\Controller\BaseController.java
D:\Automation\RealEstateDigital\src\test\java\test.java
D:\Automation\RealEstateDigital\src\test\java\rWeb\Forms\RegistrationForm.java
D:\Automation\RealEstateDigital\src\test\java\rDesk\MyNeighborhoodReport\previewReport.java
D:\Automation\RealEstateDigital\src\test\java\rDesk\MyNeighborhoodReport\verifyReport.java
D:\Automation\RealEstateDigital\src\test\java\rDesk\ManageLeads\PreRequisite.java
D:\Automation\RealEstateDigital\src\test\java\rDesk\SellerAdvantage\LAR\createLAR.java
D:\Automation\RealEstateDigital\src\test\java\rDesk\SellerAdvantage\MainPage\preRequisite.java
D:\Automation\RealEstateDigital\src\test\java\rWeb\Search\Search_Data.java
D:\Automation\RealEstateDigital\src\test\java\rDesk\MyNeighborhoodReport\MainPage.java
D:\Automation\RealEstateDigital\src\test\java\rDesk\SellerAdvantage\LAR\test.java
D:\Automation\RealEstateDigital\src\test\java\rDesk\SellerAdvantage\MainPage\MainPageLAR.java
D:\Automation\RealEstateDigital\src\test\java\rDesk\SellerAdvantage\MainPage\MainPageMAR.java
D:\Automation\RealEstateDigital\src\test\java\rDesk\Login\LoginUser.java
D:\Automation\RealEstateDigital\src\test\java\rDesk\SellerAdvantage\MAR\test.java
D:\Automation\RealEstateDigital\src\test\java\rWeb\Login\LoginUser.java
D:\Automation\RealEstateDigital\src\test\java\rWeb\Search\Search.java
D:\Automation\RealEstateDigital\src\test\java\Admin\Login\SaveAgent.java
D:\Automation\RealEstateDigital\src\test\java\rWeb\Forms\ContactForm.java
D:\Automation\RealEstateDigital\src\test\java\Admin\Company\Offices\DeleteOffice.java
D:\Automation\RealEstateDigital\src\test\java\Admin\Login\Login.java
D:\Automation\RealEstateDigital\src\test\java\rDesk\MyNeighborhoodReport\Test_Data.java
D:\Automation\RealEstateDigital\src\test\java\rDesk\MyNeighborhoodReport\emailPreview.java
D:\Automation\RealEstateDigital\src\test\java\rDesk\ManageLeads\CheckLead.java
D:\Automation\RealEstateDigital\src\test\java\rDesk\MyNeighborhoodReport\createReport.java
D:\Automation\RealEstateDigital\src\test\java\rWeb\Search\RequestShowing.java
D:\Automation\RealEstateDigital\src\test\java\io\cucumber\examples\testng\RunCucumberByCompositionBase.java
D:\Automation\RealEstateDigital\src\test\java\io\cucumber\examples\testng\DateSteps.java
D:\Automation\RealEstateDigital\src\test\java\rWeb\SearchAgent\Search.java
D:\Automation\RealEstateDigital\src\test\java\rWeb\SearchBroker\Search_Data.java
D:\Automation\RealEstateDigital\src\test\java\rDesk\SellerAdvantage\LAR\verifyLAR.java
